[
    {
        "name": "fonts",
        "include_version": false,
        "target_path": "build/fonts/",
        "font_folder": "SourceSansPro-Regular",
        "files": [
            "fonts/SourceSansPro-Regular/SourceSansPro-Regular-webfont.eot",
            "fonts/SourceSansPro-Regular/SourceSansPro-Regular-webfont.svg",
            "fonts/SourceSansPro-Regular/SourceSansPro-Regular-webfont.ttf",
            "fonts/SourceSansPro-Regular/SourceSansPro-Regular-webfont.woff"
        ]
    },
    {
        "name": "fonts",
        "include_version": false,
        "target_path": "build/fonts/",
        "font_folder": "SourceSansPro-Bold",
        "files": [
            "fonts/SourceSansPro-Bold/SourceSansPro-Bold-webfont.eot",
            "fonts/SourceSansPro-Bold/SourceSansPro-Bold-webfont.svg",
            "fonts/SourceSansPro-Bold/SourceSansPro-Bold-webfont.ttf",
            "fonts/SourceSansPro-Bold/SourceSansPro-Bold-webfont.woff"
        ]
    }
]
